…
Upon file read, the function outputs a summary outlining the column
names and types of the data by default. This can be silenced by
specifying `show_col_types=FALSE` when calling the function.

Now the World Bank population data is stored in a `tibble` named
`population`. Calling the name of the variable will display the data in
a neat interactive table viewer.

``` r
population
```

    ## # A tibble: 266 × 67
    ##    `Country Name` `Country Code` `Indicator Name` `Indicator Code` `1960` `1961`
    ##    <chr>          <chr>          <chr>            <chr>             <dbl>  <dbl>
    ##  1 Aruba          ABW            Population, tot… SP.POP.TOTL      5.46e4 5.58e4
    ##  2 Africa Easter… AFE            Population, tot… SP.POP.TOTL      1.31e8 1.34e8
    ##  3 Afghanistan    AFG            Population, tot… SP.POP.TOTL      8.62e6 8.79e6
    ##  4 Africa Wester… AFW            Population, tot… SP.POP.TOTL      9.73e7 9.93e7
    ##  5 Angola         AGO            Population, tot… SP.POP.TOTL      5.36e6 5.44e6
    ##  6 Albania        ALB            Population, tot… SP.POP.TOTL      1.61e6 1.66e6
    ##  7 Andorra        AND            Population, tot… SP.POP.TOTL      9.44e3 1.02e4
    ##  8 Arab World     ARB            Population, tot… SP.POP.TOTL      9.34e7 9.58e7
    ##  9 United Arab E… ARE            Population, tot… SP.POP.TOTL      1.33e5 1.41e5
    ## 10 Argentina      ARG            Population, tot… SP.POP.TOTL      2.03e7 2.07e7
    ## # ℹ 256 more rows
    ## # ℹ 61 more variables: `1962` <dbl>, `1963` <dbl>, `1964` <dbl>, `1965` <dbl>,
    ## #   `1966` <dbl>, `1967` <dbl>, `1968` <dbl>, `1969` <dbl>, `1970` <dbl>,
    ## #   `1971` <dbl>, `1972` <dbl>, `1973` <dbl>, `1974` <dbl>, `1975` <dbl>,
    ## #   `1976` <dbl>, `1977` <dbl>, `1978` <dbl>, `1979` <dbl>, `1980` <dbl>,
    ## #   `1981` <dbl>, `1982` <dbl>, `1983` <dbl>, `1984` <dbl>, `1985` <dbl>,
    ## #   `1986` <dbl>, `1987` <dbl>, `1988` <dbl>, `1989` <dbl>, `1990` <dbl>, …
…
``` r
population_long <- tidyr::pivot_longer(data = population,
                                       cols = tidyselect::starts_with("x"),
                                       names_to = "year",
                                       names_prefix = "x",
                                       values_to = "population")
population_long
```

    ## # A tibble: 16,758 × 4
    ##    country_name country_code year  population
    ##    <chr>        <chr>        <chr>      <dbl>
    ##  1 Aruba        ABW          1960       54608
    ##  2 Aruba        ABW          1961       55811
    ##  3 Aruba        ABW          1962       56682
    ##  4 Aruba        ABW          1963       57475
    ##  5 Aruba        ABW          1964       58178
    ##  6 Aruba        ABW          1965       58782
    ##  7 Aruba        ABW          1966       59291
    ##  8 Aruba        ABW          1967       59522
    ##  9 Aruba        ABW          1968       59471
    ## 10 Aruba        ABW          1969       59330
    ## # ℹ 16,748 more rows
…
``` r
gdp_long <- gdp %>%
    tidyr::pivot_longer(cols = tidyselect::starts_with("x"),
                        names_to = "year",
                        names_prefix = "x",
                        values_to = "gdp") %>%
    dplyr::mutate(year = as.integer(year))

gdp_long
```

    ## # A tibble: 16,758 × 4
    ##    country_name country_code  year   gdp
    ##    <chr>        <chr>        <int> <dbl>
    ##  1 Aruba        ABW           1960    NA
    ##  2 Aruba        ABW           1961    NA
    ##  3 Aruba        ABW           1962    NA
    ##  4 Aruba        ABW           1963    NA
    ##  5 Aruba        ABW           1964    NA
    ##  6 Aruba        ABW           1965    NA
    ##  7 Aruba        ABW           1966    NA
    ##  8 Aruba        ABW           1967    NA
    ##  9 Aruba        ABW           1968    NA
    ## 10 Aruba        ABW           1969    NA
    ## # ℹ 16,748 more rows
…
``` r
data <- data %>%
    dplyr::select(-country_name.y,
                  country_name = country_name.x) %>%
    dplyr::mutate(gdp_per_capita = gdp / population)

print(data)
```

    ## # A tibble: 16,758 × 6
    ##    country_name country_code  year population   gdp gdp_per_capita
    ##    <chr>        <chr>        <int>      <dbl> <dbl>          <dbl>
    ##  1 Aruba        ABW           1960      54608    NA             NA
    ##  2 Aruba        ABW           1961      55811    NA             NA
    ##  3 Aruba        ABW           1962      56682    NA             NA
    ##  4 Aruba        ABW           1963      57475    NA             NA
    ##  5 Aruba        ABW           1964      58178    NA             NA
    ##  6 Aruba        ABW           1965      58782    NA             NA
    ##  7 Aruba        ABW           1966      59291    NA             NA
    ##  8 Aruba        ABW           1967      59522    NA             NA
    ##  9 Aruba        ABW           1968      59471    NA             NA
    ## 10 Aruba        ABW           1969      59330    NA             NA
    ## # ℹ 16,748 more rows
…
``` r
data <- life_expectancy %>%
    dplyr::select(-country_name) %>%
    dplyr::inner_join(x = data,
                      y = .,
                      by = c("country_code", "year"))
data
```

    ## # A tibble: 16,758 × 7
    ##    country_name country_code  year population   gdp gdp_per_capita
    ##    <chr>        <chr>        <int>      <dbl> <dbl>          <dbl>
    ##  1 Aruba        ABW           1960      54608    NA             NA
    ##  2 Aruba        ABW           1961      55811    NA             NA
    ##  3 Aruba        ABW           1962      56682    NA             NA
    ##  4 Aruba        ABW           1963      57475    NA             NA
    ##  5 Aruba        ABW           1964      58178    NA             NA
    ##  6 Aruba        ABW           1965      58782    NA             NA
    ##  7 Aruba        ABW           1966      59291    NA             NA
    ##  8 Aruba        ABW           1967      59522    NA             NA
    ##  9 Aruba        ABW           1968      59471    NA             NA
    ## 10 Aruba        ABW           1969      59330    NA             NA
    ## # ℹ 16,748 more rows
    ## # ℹ 1 more variable: life_expectancy <dbl>
…
``` r
data <- m49 %>%
    dplyr::select(region_name,
                  country_code = iso_alpha3_code) %>%
    dplyr::inner_join(data,
                      by = "country_code") %>%
    dplyr::select(country_name,
                  country_code,
                  region_name,
                  year,
                  tidyselect::everything())
data
```

    ## # A tibble: 13,545 × 8
    ##    country_name country_code region_name  year population     gdp gdp_per_capita
    ##    <chr>        <chr>        <chr>       <int>      <dbl>   <dbl>          <dbl>
    ##  1 Algeria      DZA          Africa       1960   11394307  2.72e9           239.
    ##  2 Algeria      DZA          Africa       1961   11598608  2.43e9           210.
    ##  3 Algeria      DZA          Africa       1962   11778260  2.00e9           170.
    ##  4 Algeria      DZA          Africa       1963   11969451  2.70e9           226.
    ##  5 Algeria      DZA          Africa       1964   12179099  2.91e9           239.
    ##  6 Algeria      DZA          Africa       1965   12381256  3.14e9           253.
    ##  7 Algeria      DZA          Africa       1966   12613389  3.04e9           241.
    ##  8 Algeria      DZA          Africa       1967   12897115  3.37e9           261.
    ##  9 Algeria      DZA          Africa       1968   13190975  3.85e9           292.
    ## 10 Algeria      DZA          Africa       1969   13491016  4.26e9           316.
    ## # ℹ 13,535 more rows
    ## # ℹ 1 more variable: life_expectancy <dbl>
…
``` r

print(data)
```

    ## # A tibble: 13,545 × 8
    ##    country_name country_code region_name  year population     gdp gdp_per_capita
    ##    <chr>        <chr>        <chr>       <int>      <dbl>   <dbl>          <dbl>
    ##  1 Algeria      DZA          Africa       1960   11394307  2.72e9           239.
    ##  2 Algeria      DZA          Africa       1961   11598608  2.43e9           210.
    ##  3 Algeria      DZA          Africa       1962   11778260  2.00e9           170.
    ##  4 Algeria      DZA          Africa       1963   11969451  2.70e9           226.
    ##  5 Algeria      DZA          Africa       1964   12179099  2.91e9           239.
    ##  6 Algeria      DZA          Africa       1965   12381256  3.14e9           253.
    ##  7 Algeria      DZA          Africa       1966   12613389  3.04e9           241.
    ##  8 Algeria      DZA          Africa       1967   12897115  3.37e9           261.
    ##  9 Algeria      DZA          Africa       1968   13190975  3.85e9           292.
    ## 10 Algeria      DZA          Africa       1969   13491016  4.26e9           316.
    ## # ℹ 13,535 more rows
    ## # ℹ 1 more variable: life_expectancy <dbl>
…
``` r
animation_data <- data %>%
    tidyr::drop_na() %>%
    dplyr::group_by(country_code) %>%
    dplyr::filter(dplyr::n() == diff(range(data$year)))

animation_data
```

    ## # A tibble: 5,332 × 8
    ## # Groups:   country_code [86]
    ##    country_name country_code region_name  year population     gdp gdp_per_capita
    ##    <chr>        <chr>        <chr>       <int>      <dbl>   <dbl>          <dbl>
    ##  1 Algeria      DZA          Africa       1960   11394307  2.72e9           239.
    ##  2 Algeria      DZA          Africa       1961   11598608  2.43e9           210.
    ##  3 Algeria      DZA          Africa       1962   11778260  2.00e9           170.
    ##  4 Algeria      DZA          Africa       1963   11969451  2.70e9           226.
    ##  5 Algeria      DZA          Africa       1964   12179099  2.91e9           239.
    ##  6 Algeria      DZA          Africa       1965   12381256  3.14e9           253.
    ##  7 Algeria      DZA          Africa       1966   12613389  3.04e9           241.
    ##  8 Algeria      DZA          Africa       1967   12897115  3.37e9           261.
    ##  9 Algeria      DZA          Africa       1968   13190975  3.85e9           292.
    ## 10 Algeria      DZA          Africa       1969   13491016  4.26e9           316.
    ## # ℹ 5,322 more rows
    ## # ℹ 1 more variable: life_expectancy <dbl>
…
